…
## Lego.com

The first set of functions provide a convenient way to scrape data from
<https://shop.lego.com/>. These functions are based on the `rvest`
package and depend on the structure of the site; site updates may break
the functionality. All functions for lego.com start with the `lego_`
prefix.

The natural approach to gather data on all currently available lego sets
is to get all sets by theme.

``` r
(themes <- lego_get_themes())
#> # A tibble: 40 x 4
#>    theme_name  theme_link         theme_description         theme_age_range
#>    <chr>       <chr>              <chr>                     <chr>          
#>  1 Architectu… https://shop.lego… LEGO® Architecture prese… ""             
#>  2 BOOST       https://shop.lego… LEGO® BOOST lets childre… ""             
#>  3 BrickHeadz  https://shop.lego… Collect, build and displ… ""             
#>  4 City        https://shop.lego… LEGO® City is a realisti… ""             
#>  5 Classic     https://shop.lego… Develop children’s creat… ""             
#>  6 Creator 3-… https://shop.lego… The LEGO® Creator series… ""             
#>  7 Creator Ex… https://shop.lego… Are you ready for the ul… ""             
#>  8 DC Super H… https://shop.lego… LEGO® DC Universe™ Super… ""             
#>  9 Disney™     https://shop.lego… LEGO® Disney characters … ""             
#> 10 DUPLO®      https://shop.lego… For 50 years, we have be… ""             
#> # … with 30 more rows
```
…
As with the Lego store, sets on brickset are organized by theme.

``` r
themes <- brickset_get_themes()
```

We can see what themes existed at the beginning…

``` r
# Oldest themes
arrange(themes, yearfrom)
#> # A tibble: 140 x 5
#>    theme                  setcount subthemecount yearfrom yearto
#>    <chr>                     <dbl>         <dbl>    <dbl>  <dbl>
#>  1 System                      433            10     1949   1970
#>  2 Promotional                 441            16     1958   2019
#>  3 Dacta                       165            10     1960   2003
#>  4 Samsonite                   269             7     1961   1979
#>  5 Books                       295            36     1966   2020
#>  6 Trains                      206             7     1966   2006
#>  7 Duplo                      1198            44     1969   2019
#>  8 LEGOLAND                    162             6     1969   1978
#>  9 Universal Building Set       43             3     1969   1987
#> 10 Minitalia                    21             0     1970   1977
#> # … with 130 more rows
```
…
