Package to scrape data from shop.lego.com and brickset • LegoR
…
Lego.com

The first set of functions provide a convenient way to scrape data from https://shop.lego.com/. These functions are based on the rvest package and depend on the structure of the site; site updates may break the functionality. All functions for lego.com start with the lego_ prefix.

The natural approach to gather data on all currently available lego sets is to get all sets by theme.

(themes <- lego_get_themes())
#> # A tibble: 40 x 4
#>    theme_name  theme_link         theme_description         theme_age_range
#>    <chr>       <chr>              <chr>                     <chr>          
#>  1 Architectu… https://shop.lego… LEGO® Architecture prese… ""             
#>  2 BOOST       https://shop.lego… LEGO® BOOST lets childre… ""             
#>  3 BrickHeadz  https://shop.lego… Collect, build and displ… ""             
#>  4 City        https://shop.lego… LEGO® City is a realisti… ""             
#>  5 Classic     https://shop.lego… Develop children’s creat… ""             
#>  6 Creator 3-… https://shop.lego… The LEGO® Creator series… ""             
#>  7 Creator Ex… https://shop.lego… Are you ready for the ul… ""             
#>  8 DC Super H… https://shop.lego… LEGO® DC Universe™ Super… ""             
#>  9 Disney™     https://shop.lego… LEGO® Disney characters … ""             
#> 10 DUPLO®      https://shop.lego… For 50 years, we have be… ""             
#> # … with 30 more rows
…
