Get all lego sets in a category — lego_get_sets • LegoR
…
    Get all lego sets in a category

lego_get_sets(url)

    Arguments

      url
      url of the base page (additional pages will be retrieved automatically)

    Examples

library(LegoR)
lego_get_sets("https://shop.lego.com/en-US/category/creator-3-in-1")
#> # A tibble: 25 x 5
#>    flag  Item  price title             link                                     
#>    <chr> <chr> <dbl> <chr>             <chr>                                    
#>  1 New   31097  80.0 Townhouse Pet Sh… https://shop.lego.com/en-US/product/town…
#>  2 New   31096  60.0 Twin-Rotor Helic… https://shop.lego.com/en-US/product/twin…
#>  3 New   31095  50.0 Fairground Carou… https://shop.lego.com/en-US/product/fair…
#>  4 New   31098  30.0 Outback Cabin     https://shop.lego.com/en-US/product/outb…
#>  5 NA    31084  90.0 Pirate Roller Co… https://shop.lego.com/en-US/product/pira…
#>  6 NA    31083  60.0 Cruising Adventu… https://shop.lego.com/en-US/product/crui…
#>  7 NA    31081  40.0 Modular Skate Ho… https://shop.lego.com/en-US/product/modu…
#>  8 NA    31077  40.0 Modular Sweet Su… https://shop.lego.com/en-US/product/modu…
#>  9 NA    31093  40.0 Riverside Houseb… https://shop.lego.com/en-US/product/rive…
#> 10 NA    31079  35.0 Sunshine Surfer … https://shop.lego.com/en-US/product/suns…
#> # … with 15 more rows
…
